E:\Epam\EpamPractic\multithreading\src\main\java\com\andriy\model\Fabonacci.java
E:\Epam\EpamPractic\multithreading\src\main\java\com\andriy\Main.java
E:\Epam\EpamPractic\multithreading\src\main\java\com\andriy\view\MyView.java
E:\Epam\EpamPractic\multithreading\src\main\java\com\andriy\view\Printable.java
